﻿<?xml version="1.0" encoding="UTF-8"?>
<book>
	<entries>
		<entry>
			<CODE>1</CODE>
			<NAME>Федеральный</NAME>
		</entry>
		<entry>
			<CODE>2</CODE>
			<NAME>Субъект РФ</NAME>
		</entry>
		<entry>
			<CODE>3</CODE>
			<NAME>Муниципальный</NAME>
		</entry>
	</entries>
</book>