﻿<?xml version="1.0" encoding="UTF-8"?>
<book>
	<entries>
		<entry>
			<GROUP/>
			<CODE/>
			<ID>1</ID>
			<NAME>Производственная</NAME>
		</entry>
		<entry>
			<GROUP>1</GROUP>
			<CODE>1</CODE>
			<ID>2</ID>
			<NAME>Промышленная</NAME>
		</entry>
		<entry>
			<GROUP>1</GROUP>
			<CODE>2</CODE>
			<ID>3</ID>
			<NAME>Транспортная</NAME>
		</entry>
		<entry>
			<GROUP>1</GROUP>
			<CODE>4</CODE>
			<ID>4</ID>
			<NAME>Сельскохозяйственная</NAME>
		</entry>
		<entry>
			<GROUP>3</GROUP>
			<CODE>3</CODE>
			<ID>5</ID>
			<NAME>в том числе ДТП</NAME>
		</entry>
		<entry>
			<GROUP>1</GROUP>
			<CODE>5</CODE>
			<ID>6</ID>
			<NAME>Прочие</NAME>
		</entry>
		<entry>
			<GROUP/>
			<CODE/>
			<ID>7</ID>
			<NAME>Не производственная</NAME>
		</entry>
		<entry>
			<GROUP>7</GROUP>
			<CODE>6</CODE>
			<ID>8</ID>
			<NAME>Бытовая</NAME>
		</entry>
		<entry>
			<GROUP>7</GROUP>
			<CODE>7</CODE>
			<ID>9</ID>
			<NAME>Уличная</NAME>
		</entry>
		<entry>
			<GROUP>7</GROUP>
			<CODE>8</CODE>
			<ID>10</ID>
			<NAME>Транспортная</NAME>
		</entry>
		<entry>
			<GROUP>10</GROUP>
			<CODE>9</CODE>
			<ID>11</ID>
			<NAME>в том числе ДТП</NAME>
		</entry>
		<entry>
			<GROUP>7</GROUP>
			<CODE>10</CODE>
			<ID>12</ID>
			<NAME>Школьная</NAME>
		</entry>
		<entry>
			<GROUP>7</GROUP>
			<CODE>11</CODE>
			<ID>13</ID>
			<NAME>Спортивная</NAME>
		</entry>
		<entry>
			<GROUP>7</GROUP>
			<CODE>12</CODE>
			<ID>14</ID>
			<NAME>Прочие</NAME>
		</entry>
		<entry>
			<GROUP/>
			<CODE>13</CODE>
			<ID>15</ID>
			<NAME>Полученная в результате террористических действий</NAME>
		</entry>
	</entries>
</book>