﻿<?xml version="1.0" encoding="UTF-8"?>
<Items
	Description="ОписаниеОформленияВидовОбъектов"
	Columns="Родитель,ИмяОформления,Наименование,Легенда,Оформление,Картинка">
	
	<Item
		Родитель = "Архивирование"
		ИмяОформления = "Архивирование_АрхивныйЭлемент"
		Наименование = "Элемент находится в архиве"
		Легенда = "В архиве"
		Оформление="65;81;72;119;65;81;65;65;65;65;65;65;65;79;43;55;118;51;115;105;85;121;73;115;73;106;119;47;101;71;49;
			115;73;72;90;108;99;110;78;112;98;50;52;57;73;105;73;120;76;106;65;105;73;106;56;43;68;81;111;56;81;88;66;119;
			13;10;90;87;70;121;89;87;53;106;90;83;66;52;98;87;120;117;99;122;48;105;73;109;104;48;100;72;65;54;76;121;57;
			50;79;67;52;120;89;121;53;121;100;83;56;52;76;106;69;118;90;71;70;48;89;83;49;106;98;50;49;119;98;51;78;112;
			13;10;100;71;108;118;98;105;49;122;101;88;78;48;90;87;48;118;89;50;57;121;90;83;73;105;73;72;104;116;98;71;53;
			122;79;110;104;122;80;83;73;105;97;72;82;48;99;68;111;118;76;51;100;51;100;121;53;51;77;121;53;118;99;109;99;
			118;13;10;77;106;65;119;77;83;57;89;84;85;120;84;89;50;104;108;98;87;69;105;73;105;66;52;98;87;120;117;99;122;
			112;52;99;50;107;57;73;105;74;111;100;72;82;119;79;105;56;118;100;51;100;51;76;110;99;122;76;109;57;121;90;121;
			56;121;13;10;77;68;65;120;76;49;104;78;84;70;78;106;97;71;86;116;89;83;49;112;98;110;78;48;89;87;53;106;90;83;
			73;105;80;103;48;75;67;84;120;112;100;71;86;116;73;72;104;116;98;71;53;122;79;109;82;106;99;51;78;108;100;68;
			48;105;13;10;73;109;104;48;100;72;65;54;76;121;57;50;79;67;52;120;89;121;53;121;100;83;56;52;76;106;69;118;90;
			71;70;48;89;83;49;106;98;50;49;119;98;51;78;112;100;71;108;118;98;105;49;122;101;88;78;48;90;87;48;118;99;50;
			86;48;13;10;100;71;108;117;90;51;77;105;73;105;66;52;99;50;107;54;100;72;108;119;90;84;48;105;73;109;82;106;
			99;51;78;108;100;68;112;84;90;88;82;48;97;87;53;110;99;49;66;104;99;109;70;116;90;88;82;108;99;108;90;104;98;
			72;86;108;13;10;73;105;73;43;68;81;111;74;67;84;120;119;89;88;74;104;98;87;86;48;90;88;73;43;48;75;98;81;115;
			116;67;49;48;89;76;81;111;116;67;49;48;76;114;82;103;100;71;67;48;76;65;56;76;51;66;104;99;109;70;116;90;88;82;
			108;13;10;99;106;52;78;67;103;107;74;80;72;90;104;98;72;86;108;73;72;104;116;98;71;53;122;79;109;81;122;99;68;
			69;57;73;105;74;111;100;72;82;119;79;105;56;118;100;106;103;117;77;87;77;117;99;110;85;118;79;67;52;120;76;50;
			82;104;13;10;100;71;69;118;100;87;107;105;73;105;66;52;99;50;107;54;100;72;108;119;90;84;48;105;73;109;81;122;
			99;68;69;54;81;50;57;115;98;51;73;105;73;106;52;106;81;107;77;52;82;106;104;71;80;67;57;50;89;87;120;49;90;84;
			52;78;13;10;67;103;107;56;76;50;108;48;90;87;48;43;68;81;111;56;76;48;70;119;99;71;86;104;99;109;70;117;89;50;
			85;43;73;110;48;61;"
		Картинка = ""
	/>
	
	<Item
		Родитель = "Архивирование"
		ИмяОформления = "Архивирование_АрхивныйЭлементВПолеВвода"
		Наименование = "Отображение в объекте архивности одного из полей"
		Легенда = "Данные в архиве"
		Оформление = "65;81;69;81;65;119;65;65;65;65;65;65;65;79;43;55;118;51;115;105;85;121;73;115;73;106;119;47;101;71;49;
			115;73;72;90;108;99;110;78;112;98;50;52;57;73;105;73;120;76;106;65;105;73;106;56;43;68;81;111;56;81;88;66;
			119;13;10;90;87;70;121;89;87;53;106;90;83;66;52;98;87;120;117;99;122;48;105;73;109;104;48;100;72;65;54;76;
			121;57;50;79;67;52;120;89;121;53;121;100;83;56;52;76;106;69;118;90;71;70;48;89;83;49;106;98;50;49;119;98;51;
			78;112;13;10;100;71;108;118;98;105;49;122;101;88;78;48;90;87;48;118;89;50;57;121;90;83;73;105;73;72;104;116;
			98;71;53;122;79;110;104;122;80;83;73;105;97;72;82;48;99;68;111;118;76;51;100;51;100;121;53;51;77;121;53;118;
			99;109;99;118;13;10;77;106;65;119;77;83;57;89;84;85;120;84;89;50;104;108;98;87;69;105;73;105;66;52;98;87;120;
			117;99;122;112;52;99;50;107;57;73;105;74;111;100;72;82;119;79;105;56;118;100;51;100;51;76;110;99;122;76;109;
			57;121;90;121;56;121;13;10;77;68;65;120;76;49;104;78;84;70;78;106;97;71;86;116;89;83;49;112;98;110;78;48;
			89;87;53;106;90;83;73;105;80;103;48;75;67;84;120;112;100;71;86;116;73;72;104;116;98;71;53;122;79;109;82;
			106;99;51;78;108;100;68;48;105;13;10;73;109;104;48;100;72;65;54;76;121;57;50;79;67;52;120;89;121;53;121;
			100;83;56;52;76;106;69;118;90;71;70;48;89;83;49;106;98;50;49;119;98;51;78;112;100;71;108;118;98;105;49;122;
			101;88;78;48;90;87;48;118;99;50;86;48;13;10;100;71;108;117;90;51;77;105;73;105;66;52;99;50;107;54;100;72;108;
			119;90;84;48;105;73;109;82;106;99;51;78;108;100;68;112;84;90;88;82;48;97;87;53;110;99;49;66;104;99;109;70;
			116;90;88;82;108;99;108;90;104;98;72;86;108;13;10;73;105;73;43;68;81;111;74;67;84;120;119;89;88;74;104;98;
			87;86;48;90;88;73;43;48;75;98;81;115;116;67;49;48;89;76;81;112;78;67;43;48;76;51;81;115;68;119;118;99;71;70;
			121;89;87;49;108;100;71;86;121;80;103;48;75;13;10;67;81;107;56;100;109;70;115;100;87;85;103;101;71;49;115;
			98;110;77;54;90;68;78;119;77;84;48;105;73;109;104;48;100;72;65;54;76;121;57;50;79;67;52;120;89;121;53;121;
			100;83;56;52;76;106;69;118;90;71;70;48;89;83;57;49;13;10;97;83;73;105;73;72;104;122;97;84;112;48;101;88;66;
			108;80;83;73;105;90;68;78;119;77;84;112;68;98;50;120;118;99;105;73;105;80;105;78;67;81;122;104;71;79;69;89;
			56;76;51;90;104;98;72;86;108;80;103;48;75;67;84;119;118;13;10;97;88;82;108;98;84;52;78;67;103;107;56;97;88;
			82;108;98;83;66;52;98;87;120;117;99;122;112;107;89;51;78;122;90;88;81;57;73;105;74;111;100;72;82;119;79;105;
			56;118;100;106;103;117;77;87;77;117;99;110;85;118;79;67;52;120;13;10;76;50;82;104;100;71;69;116;89;50;57;116;
			99;71;57;122;97;88;82;112;98;50;52;116;99;51;108;122;100;71;86;116;76;51;78;108;100;72;82;112;98;109;100;122;
			73;105;73;103;101;72;78;112;79;110;82;53;99;71;85;57;73;105;74;107;13;10;89;51;78;122;90;88;81;54;85;50;86;
			48;100;71;108;117;90;51;78;81;89;88;74;104;98;87;86;48;90;88;74;87;89;87;120;49;90;83;73;105;80;103;48;75;
			67;81;107;56;100;88;78;108;80;109;90;104;98;72;78;108;80;67;57;49;13;10;99;50;85;43;68;81;111;74;67;84;120;
			119;89;88;74;104;98;87;86;48;90;88;73;43;48;75;98;81;115;116;67;49;48;89;76;81;111;116;67;49;48;76;114;82;
			103;100;71;67;48;76;65;56;76;51;66;104;99;109;70;116;90;88;82;108;13;10;99;106;52;78;67;103;107;74;80;72;
			90;104;98;72;86;108;73;72;104;116;98;71;53;122;79;109;81;122;99;68;69;57;73;105;74;111;100;72;82;119;79;
			105;56;118;100;106;103;117;77;87;77;117;99;110;85;118;79;67;52;120;76;50;82;104;13;10;100;71;69;118;100;
			87;107;105;73;105;66;52;99;50;107;54;100;72;108;119;90;84;48;105;73;109;81;122;99;68;69;54;81;50;57;115;
			98;51;73;105;73;106;52;106;81;107;77;52;82;106;104;71;80;67;57;50;89;87;120;49;90;84;52;78;13;10;67;103;
			107;56;76;50;108;48;90;87;48;43;68;81;111;56;76;48;70;119;99;71;86;104;99;109;70;117;89;50;85;43;73;110;
			48;61;"
		Картинка = ""
	/>
	
	<Item
		Родитель = "Архивирование"
		ИмяОформления = "Архивирование_СтатусВФормеЭлемента"
		Наименование = "Декорация статуса"
		Легенда = "оформление декорации"
		Оформление="65;81;69;81;65;119;65;65;65;65;65;65;65;79;43;55;118;51;115;105;85;121;73;115;73;106;119;47;101;71;49;115;
			73;72;90;108;99;110;78;112;98;50;52;57;73;105;73;120;76;106;65;105;73;106;56;43;68;81;111;56;81;88;66;119;13;10;90;
			87;70;121;89;87;53;106;90;83;66;52;98;87;120;117;99;122;48;105;73;109;104;48;100;72;65;54;76;121;57;50;79;67;52;120;
			89;121;53;121;100;83;56;52;76;106;69;118;90;71;70;48;89;83;49;106;98;50;49;119;98;51;78;112;13;10;100;71;108;118;98;
			105;49;122;101;88;78;48;90;87;48;118;89;50;57;121;90;83;73;105;73;72;104;116;98;71;53;122;79;110;104;122;80;83;73;
			105;97;72;82;48;99;68;111;118;76;51;100;51;100;121;53;51;77;121;53;118;99;109;99;118;13;10;77;106;65;119;77;83;57;
			89;84;85;120;84;89;50;104;108;98;87;69;105;73;105;66;52;98;87;120;117;99;122;112;52;99;50;107;57;73;105;74;111;100;
			72;82;119;79;105;56;118;100;51;100;51;76;110;99;122;76;109;57;121;90;121;56;121;13;10;77;68;65;120;76;49;104;78;84;
			70;78;106;97;71;86;116;89;83;49;112;98;110;78;48;89;87;53;106;90;83;73;105;80;103;48;75;67;84;120;112;100;71;86;116;
			73;72;104;116;98;71;53;122;79;109;82;106;99;51;78;108;100;68;48;105;13;10;73;109;104;48;100;72;65;54;76;121;57;50;79;
			67;52;120;89;121;53;121;100;83;56;52;76;106;69;118;90;71;70;48;89;83;49;106;98;50;49;119;98;51;78;112;100;71;108;118;
			98;105;49;122;101;88;78;48;90;87;48;118;99;50;86;48;13;10;100;71;108;117;90;51;77;105;73;105;66;52;99;50;107;54;100;
			72;108;119;90;84;48;105;73;109;82;106;99;51;78;108;100;68;112;84;90;88;82;48;97;87;53;110;99;49;66;104;99;109;70;116;
			90;88;82;108;99;108;90;104;98;72;86;108;13;10;73;105;73;43;68;81;111;74;67;84;120;49;99;50;85;43;90;109;70;115;99;50;
			85;56;76;51;86;122;90;84;52;78;67;103;107;74;80;72;66;104;99;109;70;116;90;88;82;108;99;106;55;81;112;116;67;121;48;
			76;88;82;103;116;67;107;13;10;48;76;55;81;118;100;67;119;80;67;57;119;89;88;74;104;98;87;86;48;90;88;73;43;68;81;111;
			74;67;84;120;50;89;87;120;49;90;83;66;52;98;87;120;117;99;122;112;107;77;51;65;120;80;83;73;105;97;72;82;48;99;68;
			111;118;13;10;76;51;89;52;76;106;70;106;76;110;74;49;76;122;103;117;77;83;57;107;89;88;82;104;76;51;86;112;73;105;73;
			103;101;72;78;112;79;110;82;53;99;71;85;57;73;105;74;107;77;51;65;120;79;107;78;118;98;71;57;121;73;105;73;43;13;10;73;
			48;90;71;82;107;90;69;77;106;119;118;100;109;70;115;100;87;85;43;68;81;111;74;80;67;57;112;100;71;86;116;80;103;48;75;
			67;84;120;112;100;71;86;116;73;72;104;116;98;71;53;122;79;109;82;106;99;51;78;108;100;68;48;105;13;10;73;109;104;48;
			100;72;65;54;76;121;57;50;79;67;52;120;89;121;53;121;100;83;56;52;76;106;69;118;90;71;70;48;89;83;49;106;98;50;49;119;
			98;51;78;112;100;71;108;118;98;105;49;122;101;88;78;48;90;87;48;118;99;50;86;48;13;10;100;71;108;117;90;51;77;105;73;
			105;66;52;99;50;107;54;100;72;108;119;90;84;48;105;73;109;82;106;99;51;78;108;100;68;112;84;90;88;82;48;97;87;53;110;
			99;49;66;104;99;109;70;116;90;88;82;108;99;108;90;104;98;72;86;108;13;10;73;105;73;43;68;81;111;74;67;84;120;119;89;
			88;74;104;98;87;86;48;90;88;73;43;48;75;98;81;115;116;67;49;48;89;76;81;111;116;67;49;48;76;114;82;103;100;71;67;48;
			76;65;56;76;51;66;104;99;109;70;116;90;88;82;108;13;10;99;106;52;78;67;103;107;74;80;72;90;104;98;72;86;108;73;72;
			104;116;98;71;53;122;79;109;81;122;99;68;69;57;73;105;74;111;100;72;82;119;79;105;56;118;100;106;103;117;77;87;77;
			117;99;110;85;118;79;67;52;120;76;50;82;104;13;10;100;71;69;118;100;87;107;105;73;105;66;52;99;50;107;54;100;72;108;
			119;90;84;48;105;73;109;81;122;99;68;69;54;81;50;57;115;98;51;73;105;73;106;52;106;77;84;107;49;78;85;70;70;80;67;57;
			50;89;87;120;49;90;84;52;78;13;10;67;103;107;56;76;50;108;48;90;87;48;43;68;81;111;56;76;48;70;119;99;71;86;104;99;
			109;70;117;89;50;85;43;73;110;48;61;"
		Картинка = "65;81;70;118;65;65;65;65;65;65;65;65;65;79;43;55;118;51;115;105;73;121;73;115;90;84;90;109;78;84;69;
			51;77;84;81;116;79;84;70;106;89;105;48;48;90;71;78;108;76;84;107;48;90;109;85;116;79;84;66;104;90;84;78;
			108;13;10;77;50;85;120;89;87;81;120;76;65;48;75;101;122;77;115;77;83;119;78;67;110;115;119;76;68;100;109;
			77;50;77;50;77;106;89;53;76;87;86;104;78;68;69;116;78;68;107;121;90;105;48;52;78;50;73;51;76;84;100;108;89;
			87;70;109;13;10;78;122;69;121;78;122;89;121;90;88;48;115;73;105;73;115;76;84;69;115;76;84;69;115;77;67;119;
			119;102;81;48;75;102;81;61;61;"
	/>
	
</Items>