﻿<?xml version='1.0' encoding='UTF-8'?>
<book>
	<entries>
		<entry>
			<ID>1000</ID>
			<NAME>Акушерско-гинекологические</NAME>
			<ID_PARENT></ID_PARENT>
			<FORM_30>1</FORM_30>
			<ACTUAL>1</ACTUAL>
			<DATA_ACT></DATA_ACT>
			<TYPE>7</TYPE>
		</entry>
		<entry>
			<ID>1001</ID>
			<NAME>Акушерские</NAME>
			<ID_PARENT>1000</ID_PARENT>
			<FORM_30>1</FORM_30>
			<ACTUAL>1</ACTUAL>
			<DATA_ACT></DATA_ACT>
			<TYPE>2</TYPE>
		</entry>
		<entry>
			<ID>1002</ID>
			<NAME>Гинекологические</NAME>
			<ID_PARENT>1000</ID_PARENT>
			<FORM_30>1</FORM_30>
			<ACTUAL>1</ACTUAL>
			<DATA_ACT></DATA_ACT>
			<TYPE>7</TYPE>
		</entry>
		<entry>
			<ID>1003</ID>
			<NAME>Патологии беременности</NAME>
			<ID_PARENT>1000</ID_PARENT>
			<FORM_30>1</FORM_30>
			<ACTUAL>1</ACTUAL>
			<DATA_ACT></DATA_ACT>
			<TYPE>2</TYPE>
		</entry>
		<entry>
			<ID>1004</ID>
			<NAME>Аллергологические и иммунологические</NAME>
			<ID_PARENT></ID_PARENT>
			<FORM_30>2</FORM_30>
			<ACTUAL>1</ACTUAL>
			<DATA_ACT></DATA_ACT>
			<TYPE>7</TYPE>
		</entry>
		<entry>
			<ID>1005</ID>
			<NAME>Амбулатории</NAME>
			<ID_PARENT></ID_PARENT>
			<FORM_30>3</FORM_30>
			<ACTUAL>1</ACTUAL>
			<DATA_ACT></DATA_ACT>
			<TYPE>1</TYPE>
		</entry>
		<entry>
			<ID>1006</ID>
			<NAME>Аптеки</NAME>
			<ID_PARENT></ID_PARENT>
			<FORM_30>4</FORM_30>
			<ACTUAL>1</ACTUAL>
			<DATA_ACT></DATA_ACT>
			<TYPE>6</TYPE>
		</entry>
		<entry>
			<ID>1007</ID>
			<NAME>Аптеки, изготавливающие лекарственные препараты</NAME>
			<ID_PARENT>1006</ID_PARENT>
			<FORM_30>4.1</FORM_30>
			<ACTUAL>1</ACTUAL>
			<DATA_ACT></DATA_ACT>
			<TYPE>6</TYPE>
		</entry>
		<entry>
			<ID>1008</ID>
			<NAME>Восстановительного лечения</NAME>
			<ID_PARENT></ID_PARENT>
			<FORM_30>5</FORM_30>
			<ACTUAL>1</ACTUAL>
			<DATA_ACT></DATA_ACT>
			<TYPE>7</TYPE>
		</entry>
		<entry>
			<ID>1009</ID>
			<NAME>Реабилитационные для кардиологических больных</NAME>
			<ID_PARENT>1008</ID_PARENT>
			<FORM_30>5</FORM_30>
			<ACTUAL>1</ACTUAL>
			<DATA_ACT></DATA_ACT>
			<TYPE>2</TYPE>
		</entry>
		<entry>
			<ID>1010</ID>
			<NAME>Реабилитационные для нейрохирургических больных</NAME>
			<ID_PARENT>1008</ID_PARENT>
			<FORM_30>5</FORM_30>
			<ACTUAL>1</ACTUAL>
			<DATA_ACT></DATA_ACT>
			<TYPE>2</TYPE>
		</entry>
		<entry>
			<ID>1011</ID>
			<NAME>Гастроэнтерологические</NAME>
			<ID_PARENT></ID_PARENT>
			<FORM_30>6</FORM_30>
			<ACTUAL>1</ACTUAL>
			<DATA_ACT></DATA_ACT>
			<TYPE>7</TYPE>
		</entry>
		<entry>
			<ID>1012</ID>
			<NAME>Гепатологические</NAME>
			<ID_PARENT>1011</ID_PARENT>
			<FORM_30>6</FORM_30>
			<ACTUAL>1</ACTUAL>
			<DATA_ACT></DATA_ACT>
			<TYPE>2</TYPE>
		</entry>
		<entry>
			<ID>1013</ID>
			<NAME>Гематологические</NAME>
			<ID_PARENT></ID_PARENT>
			<FORM_30>7</FORM_30>
			<ACTUAL>1</ACTUAL>
			<DATA_ACT></DATA_ACT>
			<TYPE>7</TYPE>
		</entry>
		<entry>
			<ID>1014</ID>
			<NAME>Гемодиализа</NAME>
			<ID_PARENT></ID_PARENT>
			<FORM_30>8</FORM_30>
			<ACTUAL>1</ACTUAL>
			<DATA_ACT></DATA_ACT>
			<TYPE>2</TYPE>
		</entry>
		<entry>
			<ID>1015</ID>
			<NAME>Гемосорбции</NAME>
			<ID_PARENT></ID_PARENT>
			<FORM_30>9</FORM_30>
			<ACTUAL>1</ACTUAL>
			<DATA_ACT></DATA_ACT>
			<TYPE>2</TYPE>
		</entry>
		<entry>
			<ID>1016</ID>
			<NAME>Геронтологические</NAME>
			<ID_PARENT></ID_PARENT>
			<FORM_30>10</FORM_30>
			<ACTUAL>1</ACTUAL>
			<DATA_ACT></DATA_ACT>
			<TYPE>7</TYPE>
		</entry>
		<entry>
			<ID>1017</ID>
			<NAME>Гипербарический оксигенации</NAME>
			<ID_PARENT></ID_PARENT>
			<FORM_30>11</FORM_30>
			<ACTUAL>1</ACTUAL>
			<DATA_ACT></DATA_ACT>
			<TYPE>2</TYPE>
		</entry>
		<entry>
			<ID>1018</ID>
			<NAME>Дерматовенерологические</NAME>
			<ID_PARENT></ID_PARENT>
			<FORM_30>12</FORM_30>
			<ACTUAL>1</ACTUAL>
			<DATA_ACT></DATA_ACT>
			<TYPE>7</TYPE>
		</entry>
		<entry>
			<ID>1019</ID>
			<NAME>Дерматовенерологические для взрослых</NAME>
			<ID_PARENT>1018</ID_PARENT>
			<FORM_30>12</FORM_30>
			<ACTUAL>1</ACTUAL>
			<DATA_ACT></DATA_ACT>
			<TYPE>7</TYPE>
		</entry>
		<entry>
			<ID>1020</ID>
			<NAME>Дерматовенерологические для детей</NAME>
			<ID_PARENT>1018</ID_PARENT>
			<FORM_30>12</FORM_30>
			<ACTUAL>1</ACTUAL>
			<DATA_ACT></DATA_ACT>
			<TYPE>7</TYPE>
		</entry>
		<entry>
			<ID>1021</ID>
			<NAME>Детские поликлиники (отделения)</NAME>
			<ID_PARENT></ID_PARENT>
			<FORM_30>13</FORM_30>
			<ACTUAL>1</ACTUAL>
			<DATA_ACT></DATA_ACT>
			<TYPE>1</TYPE>
		</entry>
		<entry>
			<ID>1022</ID>
			<NAME>Неонатологические</NAME>
			<ID_PARENT>1021</ID_PARENT>
			<FORM_30>13</FORM_30>
			<ACTUAL>1</ACTUAL>
			<DATA_ACT></DATA_ACT>
			<TYPE>2</TYPE>
		</entry>
		<entry>
			<ID>1023</ID>
			<NAME>Диабетологические</NAME>
			<ID_PARENT></ID_PARENT>
			<FORM_30>14</FORM_30>
			<ACTUAL>1</ACTUAL>
			<DATA_ACT></DATA_ACT>
			<TYPE>7</TYPE>
		</entry>
		<entry>
			<ID>1024</ID>
			<NAME>Дистанционно-диагностические кабинеты</NAME>
			<ID_PARENT></ID_PARENT>
			<FORM_30>15</FORM_30>
			<ACTUAL>1</ACTUAL>
			<DATA_ACT></DATA_ACT>
			<TYPE>4</TYPE>
		</entry>
		<entry>
			<ID>1025</ID>
			<NAME>Дневные стационары для взрослых</NAME>
			<ID_PARENT></ID_PARENT>
			<FORM_30>16</FORM_30>
			<ACTUAL>1</ACTUAL>
			<DATA_ACT></DATA_ACT>
			<TYPE>2</TYPE>
		</entry>
		<entry>
			<ID>1026</ID>
			<NAME>Дневные стационары для детей</NAME>
			<ID_PARENT></ID_PARENT>
			<FORM_30>17</FORM_30>
			<ACTUAL>1</ACTUAL>
			<DATA_ACT></DATA_ACT>
			<TYPE>2</TYPE>
		</entry>
		<entry>
			<ID>1027</ID>
			<NAME>Дневные стационары для детей старшего возраста</NAME>
			<ID_PARENT>1026</ID_PARENT>
			<FORM_30>17</FORM_30>
			<ACTUAL>1</ACTUAL>
			<DATA_ACT></DATA_ACT>
			<TYPE>2</TYPE>
		</entry>
		<entry>
			<ID>1028</ID>
			<NAME>Домовые хозяйства, на которые возложены функции по оказанию первой помощи (ДХПП)</NAME>
			<ID_PARENT></ID_PARENT>
			<FORM_30>18</FORM_30>
			<ACTUAL>1</ACTUAL>
			<DATA_ACT></DATA_ACT>
			<TYPE>1</TYPE>
		</entry>
		<entry>
			<ID>1029</ID>
			<NAME>Женские консультации</NAME>
			<ID_PARENT></ID_PARENT>
			<FORM_30>19</FORM_30>
			<ACTUAL>1</ACTUAL>
			<DATA_ACT></DATA_ACT>
			<TYPE>1</TYPE>
		</entry>
		<entry>
			<ID>1030</ID>
			<NAME>Здравпункты врачебные</NAME>
			<ID_PARENT></ID_PARENT>
			<FORM_30>20</FORM_30>
			<ACTUAL>1</ACTUAL>
			<DATA_ACT></DATA_ACT>
			<TYPE>1</TYPE>
		</entry>
		<entry>
			<ID>1031</ID>
			<NAME>Здравпункты фельдшерские</NAME>
			<ID_PARENT></ID_PARENT>
			<FORM_30>21</FORM_30>
			<ACTUAL>1</ACTUAL>
			<DATA_ACT></DATA_ACT>
			<TYPE>1</TYPE>
		</entry>
		<entry>
			<ID>1032</ID>
			<NAME>Инфекционные для взрослых</NAME>
			<ID_PARENT></ID_PARENT>
			<FORM_30>22</FORM_30>
			<ACTUAL>1</ACTUAL>
			<DATA_ACT></DATA_ACT>
			<TYPE>7</TYPE>
		</entry>
		<entry>
			<ID>1033</ID>
			<NAME>Инфекционные для детей</NAME>
			<ID_PARENT></ID_PARENT>
			<FORM_30>23</FORM_30>
			<ACTUAL>1</ACTUAL>
			<DATA_ACT></DATA_ACT>
			<TYPE>7</TYPE>
		</entry>
		<entry>
			<ID>1034</ID>
			<NAME>Информационно-аналитические отделы</NAME>
			<ID_PARENT></ID_PARENT>
			<FORM_30>24</FORM_30>
			<ACTUAL>1</ACTUAL>
			<DATA_ACT></DATA_ACT>
			<TYPE>6</TYPE>
		</entry>
		<entry>
			<ID>1035</ID>
			<NAME>Искусcтвенного пневмоторакса</NAME>
			<ID_PARENT></ID_PARENT>
			<FORM_30>25</FORM_30>
			<ACTUAL>1</ACTUAL>
			<DATA_ACT></DATA_ACT>
			<TYPE>2</TYPE>
		</entry>
		<entry>
			<ID>1036</ID>
			<NAME>Искусственной инсеминации женщин</NAME>
			<ID_PARENT></ID_PARENT>
			<FORM_30>26</FORM_30>
			<ACTUAL>1</ACTUAL>
			<DATA_ACT></DATA_ACT>
			<TYPE>1</TYPE>
		</entry>
		<entry>
			<ID>1037</ID>
			<NAME>Кардиологические</NAME>
			<ID_PARENT></ID_PARENT>
			<FORM_30>27</FORM_30>
			<ACTUAL>1</ACTUAL>
			<DATA_ACT></DATA_ACT>
			<TYPE>7</TYPE>
		</entry>
		<entry>
			<ID>1038</ID>
			<NAME>Кардиологические для больных инфарктом миокарда</NAME>
			<ID_PARENT>1037</ID_PARENT>
			<FORM_30>27</FORM_30>
			<ACTUAL>1</ACTUAL>
			<DATA_ACT></DATA_ACT>
			<TYPE>7</TYPE>
		</entry>
		<entry>
			<ID>1039</ID>
			<NAME>Кардиологические детские</NAME>
			<ID_PARENT>1037</ID_PARENT>
			<FORM_30>27</FORM_30>
			<ACTUAL>1</ACTUAL>
			<DATA_ACT></DATA_ACT>
			<TYPE>7</TYPE>
		</entry>
		<entry>
			<ID>1040</ID>
			<NAME>Клинико-диагностические центры</NAME>
			<ID_PARENT></ID_PARENT>
			<FORM_30>28</FORM_30>
			<ACTUAL>1</ACTUAL>
			<DATA_ACT></DATA_ACT>
			<TYPE>1</TYPE>
		</entry>
		<entry>
			<ID>1041</ID>
			<NAME>Колопроктологические</NAME>
			<ID_PARENT></ID_PARENT>
			<FORM_30>29</FORM_30>
			<ACTUAL>1</ACTUAL>
			<DATA_ACT></DATA_ACT>
			<TYPE>7</TYPE>
		</entry>
		<entry>
			<ID>1042</ID>
			<NAME>Компьютерной томографии</NAME>
			<ID_PARENT></ID_PARENT>
			<FORM_30>30</FORM_30>
			<ACTUAL>1</ACTUAL>
			<DATA_ACT></DATA_ACT>
			<TYPE>4</TYPE>
		</entry>
		<entry>
			<ID>1043</ID>
			<NAME>Консультативно-диагностические центры</NAME>
			<ID_PARENT></ID_PARENT>
			<FORM_30>31</FORM_30>
			<ACTUAL>1</ACTUAL>
			<DATA_ACT></DATA_ACT>
			<TYPE>1</TYPE>
		</entry>
		<entry>
			<ID>1044</ID>
			<NAME>Консультативно-диагностические центры для детей</NAME>
			<ID_PARENT></ID_PARENT>
			<FORM_30>32</FORM_30>
			<ACTUAL>1</ACTUAL>
			<DATA_ACT></DATA_ACT>
			<TYPE>1</TYPE>
		</entry>
		<entry>
			<ID>1045</ID>
			<NAME>Консультативно-оздоровительные отделы</NAME>
			<ID_PARENT></ID_PARENT>
			<FORM_30>33</FORM_30>
			<ACTUAL>1</ACTUAL>
			<DATA_ACT></DATA_ACT>
			<TYPE>1</TYPE>
		</entry>
		<entry>
			<ID>1046</ID>
			<NAME>Лаборатории</NAME>
			<ID_PARENT></ID_PARENT>
			<FORM_30>34</FORM_30>
			<ACTUAL>1</ACTUAL>
			<DATA_ACT></DATA_ACT>
			<TYPE>3</TYPE>
		</entry>
		<entry>
			<ID>1047</ID>
			<NAME>Лаборатории биохимические</NAME>
			<ID_PARENT>1046</ID_PARENT>
			<FORM_30>34.1</FORM_30>
			<ACTUAL>1</ACTUAL>
			<DATA_ACT></DATA_ACT>
			<TYPE>3</TYPE>
		</entry>
		<entry>
			<ID>1048</ID>
			<NAME>Лаборатории биохимические централизованные</NAME>
			<ID_PARENT>1047</ID_PARENT>
			<FORM_30>34.1.1</FORM_30>
			<ACTUAL>1</ACTUAL>
			<DATA_ACT></DATA_ACT>
			<TYPE>3</TYPE>
		</entry>
		<entry>
			<ID>1049</ID>
			<NAME>Лаборатории зуботехнические</NAME>
			<ID_PARENT>1046</ID_PARENT>
			<FORM_30>34.2</FORM_30>
			<ACTUAL>1</ACTUAL>
			<DATA_ACT></DATA_ACT>
			<TYPE>6</TYPE>
		</entry>
		<entry>
			<ID>1050</ID>
			<NAME>Лаборатории иммунологические (серологические)</NAME>
			<ID_PARENT>1046</ID_PARENT>
			<FORM_30>34.3</FORM_30>
			<ACTUAL>1</ACTUAL>
			<DATA_ACT></DATA_ACT>
			<TYPE>3</TYPE>
		</entry>
		<entry>
			<ID>1051</ID>
			<NAME>Лаборатории иммунологические  централизованные</NAME>
			<ID_PARENT>1050</ID_PARENT>
			<FORM_30>34.3.1</FORM_30>
			<ACTUAL>1</ACTUAL>
			<DATA_ACT></DATA_ACT>
			<TYPE>3</TYPE>
		</entry>
		<entry>
			<ID>1052</ID>
			<NAME>Лаборатории клинико-диагностические</NAME>
			<ID_PARENT>1046</ID_PARENT>
			<FORM_30>34.4</FORM_30>
			<ACTUAL>1</ACTUAL>
			<DATA_ACT></DATA_ACT>
			<TYPE>3</TYPE>
		</entry>
		<entry>
			<ID>1053</ID>
			<NAME>Лаборатории клинико-диагностические централизованные</NAME>
			<ID_PARENT>1052</ID_PARENT>
			<FORM_30>34.4.1</FORM_30>
			<ACTUAL>1</ACTUAL>
			<DATA_ACT></DATA_ACT>
			<TYPE>3</TYPE>
		</entry>
		<entry>
			<ID>1054</ID>
			<NAME>Лаборатории коагулологические</NAME>
			<ID_PARENT>1046</ID_PARENT>
			<FORM_30>34.5</FORM_30>
			<ACTUAL>1</ACTUAL>
			<DATA_ACT></DATA_ACT>
			<TYPE>3</TYPE>
		</entry>
		<entry>
			<ID>1055</ID>
			<NAME>Лаборатории коагулологические централизованные</NAME>
			<ID_PARENT>1054</ID_PARENT>
			<FORM_30>34.5.1</FORM_30>
			<ACTUAL>1</ACTUAL>
			<DATA_ACT></DATA_ACT>
			<TYPE>3</TYPE>
		</entry>
		<entry>
			<ID>1056</ID>
			<NAME>Лаборатории микробиологические (бактериологические)</NAME>
			<ID_PARENT>1046</ID_PARENT>
			<FORM_30>34.6</FORM_30>
			<ACTUAL>1</ACTUAL>
			<DATA_ACT></DATA_ACT>
			<TYPE>3</TYPE>
		</entry>
		<entry>
			<ID>1057</ID>
			<NAME>Лаборатории микробиологические  централизованные</NAME>
			<ID_PARENT>1056</ID_PARENT>
			<FORM_30>34.6.1</FORM_30>
			<ACTUAL>1</ACTUAL>
			<DATA_ACT></DATA_ACT>
			<TYPE>3</TYPE>
		</entry>
		<entry>
			<ID>1058</ID>
			<NAME>Лаборатории патоморфологические</NAME>
			<ID_PARENT>1046</ID_PARENT>
			<FORM_30>34.7</FORM_30>
			<ACTUAL>1</ACTUAL>
			<DATA_ACT></DATA_ACT>
			<TYPE>3</TYPE>
		</entry>
		<entry>
			<ID>1059</ID>
			<NAME>Лаборатории радиоизотопной диагностики</NAME>
			<ID_PARENT>1046</ID_PARENT>
			<FORM_30>34.8</FORM_30>
			<ACTUAL>1</ACTUAL>
			<DATA_ACT></DATA_ACT>
			<TYPE>4</TYPE>
		</entry>
		<entry>
			<ID>1060</ID>
			<NAME>Лаборатории спектральные</NAME>
			<ID_PARENT>1046</ID_PARENT>
			<FORM_30>34.9</FORM_30>
			<ACTUAL>1</ACTUAL>
			<DATA_ACT></DATA_ACT>
			<TYPE>6</TYPE>
		</entry>
		<entry>
			<ID>1061</ID>
			<NAME>Лаборатории судебно-медицинские молекулярно-генетические</NAME>
			<ID_PARENT>1046</ID_PARENT>
			<FORM_30>34.10</FORM_30>
			<ACTUAL>1</ACTUAL>
			<DATA_ACT></DATA_ACT>
			<TYPE>3</TYPE>
		</entry>
		<entry>
			<ID>1062</ID>
			<NAME>Лаборатории химико-токсикологические</NAME>
			<ID_PARENT>1046</ID_PARENT>
			<FORM_30>34.11</FORM_30>
			<ACTUAL>1</ACTUAL>
			<DATA_ACT></DATA_ACT>
			<TYPE>3</TYPE>
		</entry>
		<entry>
			<ID>1063</ID>
			<NAME>Лаборатории цитологические</NAME>
			<ID_PARENT>1046</ID_PARENT>
			<FORM_30>34.12</FORM_30>
			<ACTUAL>1</ACTUAL>
			<DATA_ACT></DATA_ACT>
			<TYPE>3</TYPE>
		</entry>
		<entry>
			<ID>1064</ID>
			<NAME>Лаборатории цитологические централизованные</NAME>
			<ID_PARENT>1063</ID_PARENT>
			<FORM_30>34.12.1</FORM_30>
			<ACTUAL>1</ACTUAL>
			<DATA_ACT></DATA_ACT>
			<TYPE>3</TYPE>
		</entry>
		<entry>
			<ID>1065</ID>
			<NAME>Лечебной физкультуры для взрослых</NAME>
			<ID_PARENT></ID_PARENT>
			<FORM_30>35</FORM_30>
			<ACTUAL>1</ACTUAL>
			<DATA_ACT></DATA_ACT>
			<TYPE>1</TYPE>
		</entry>
		<entry>
			<ID>1066</ID>
			<NAME>Лечебной физкультуры для детей</NAME>
			<ID_PARENT></ID_PARENT>
			<FORM_30>36</FORM_30>
			<ACTUAL>1</ACTUAL>
			<DATA_ACT></DATA_ACT>
			<TYPE>1</TYPE>
		</entry>
		<entry>
			<ID>1067</ID>
			<NAME>Лечебно-трудовые мастерские</NAME>
			<ID_PARENT></ID_PARENT>
			<FORM_30>37</FORM_30>
			<ACTUAL>1</ACTUAL>
			<DATA_ACT></DATA_ACT>
			<TYPE>1</TYPE>
		</entry>
		<entry>
			<ID>1068</ID>
			<NAME>Лечебно-трудовые мастерские для пациентов, больных психическими расстройствами</NAME>
			<ID_PARENT>1067</ID_PARENT>
			<FORM_30>37.1</FORM_30>
			<ACTUAL>1</ACTUAL>
			<DATA_ACT></DATA_ACT>
			<TYPE>1</TYPE>
		</entry>
		<entry>
			<ID>1069</ID>
			<NAME>Лечебно-трудовые мастерские для пациентов, больных наркологическими заболеваниями</NAME>
			<ID_PARENT>1067</ID_PARENT>
			<FORM_30>37.2</FORM_30>
			<ACTUAL>1</ACTUAL>
			<DATA_ACT></DATA_ACT>
			<TYPE>1</TYPE>
		</entry>
		<entry>
			<ID>1070</ID>
			<NAME>Лечебно-трудовые мастерские для пациентов, больных туберкулезом</NAME>
			<ID_PARENT>1067</ID_PARENT>
			<FORM_30>37.3</FORM_30>
			<ACTUAL>1</ACTUAL>
			<DATA_ACT></DATA_ACT>
			<TYPE>1</TYPE>
		</entry>
		<entry>
			<ID>1071</ID>
			<NAME>Логопедические</NAME>
			<ID_PARENT></ID_PARENT>
			<FORM_30>38</FORM_30>
			<ACTUAL>1</ACTUAL>
			<DATA_ACT></DATA_ACT>
			<TYPE>1</TYPE>
		</entry>
		<entry>
			<ID>1072</ID>
			<NAME>Магнитно-резонансной томографии</NAME>
			<ID_PARENT></ID_PARENT>
			<FORM_30>39</FORM_30>
			<ACTUAL>1</ACTUAL>
			<DATA_ACT></DATA_ACT>
			<TYPE>4</TYPE>
		</entry>
		<entry>
			<ID>1073</ID>
			<NAME>Маммографические отделения (кабинеты)</NAME>
			<ID_PARENT></ID_PARENT>
			<FORM_30>40</FORM_30>
			<ACTUAL>1</ACTUAL>
			<DATA_ACT></DATA_ACT>
			<TYPE>4</TYPE>
		</entry>
		<entry>
			<ID>1074</ID>
			<NAME>Мануальной терапии</NAME>
			<ID_PARENT></ID_PARENT>
			<FORM_30>41</FORM_30>
			<ACTUAL>1</ACTUAL>
			<DATA_ACT></DATA_ACT>
			<TYPE>1</TYPE>
		</entry>
		<entry>
			<ID>1075</ID>
			<NAME>Медицинской профилактики</NAME>
			<ID_PARENT></ID_PARENT>
			<FORM_30>42</FORM_30>
			<ACTUAL>1</ACTUAL>
			<DATA_ACT></DATA_ACT>
			<TYPE>1</TYPE>
		</entry>
		<entry>
			<ID>1076</ID>
			<NAME>Межмуниципальные центры</NAME>
			<ID_PARENT></ID_PARENT>
			<FORM_30>43</FORM_30>
			<ACTUAL>1</ACTUAL>
			<DATA_ACT></DATA_ACT>
			<TYPE>1</TYPE>
		</entry>
		<entry>
			<ID>1077</ID>
			<NAME>Методические кабинеты</NAME>
			<ID_PARENT></ID_PARENT>
			<FORM_30>44</FORM_30>
			<ACTUAL>1</ACTUAL>
			<DATA_ACT></DATA_ACT>
			<TYPE>6</TYPE>
		</entry>
		<entry>
			<ID>1078</ID>
			<NAME>Молочные кухни</NAME>
			<ID_PARENT></ID_PARENT>
			<FORM_30>45</FORM_30>
			<ACTUAL>1</ACTUAL>
			<DATA_ACT></DATA_ACT>
			<TYPE>6</TYPE>
		</entry>
		<entry>
			<ID>1079</ID>
			<NAME>Наркологические реабилитационные центры</NAME>
			<ID_PARENT></ID_PARENT>
			<FORM_30>46</FORM_30>
			<ACTUAL>1</ACTUAL>
			<DATA_ACT></DATA_ACT>
			<TYPE>7</TYPE>
		</entry>
		<entry>
			<ID>1080</ID>
			<NAME>Наркологические фельдшерские пункты</NAME>
			<ID_PARENT></ID_PARENT>
			<FORM_30>47</FORM_30>
			<ACTUAL>1</ACTUAL>
			<DATA_ACT></DATA_ACT>
			<TYPE>1</TYPE>
		</entry>
		<entry>
			<ID>1081</ID>
			<NAME>Наркологические</NAME>
			<ID_PARENT></ID_PARENT>
			<FORM_30>48</FORM_30>
			<ACTUAL>1</ACTUAL>
			<DATA_ACT></DATA_ACT>
			<TYPE>7</TYPE>
		</entry>
		<entry>
			<ID>1082</ID>
			<NAME>Неврологические</NAME>
			<ID_PARENT></ID_PARENT>
			<FORM_30>49</FORM_30>
			<ACTUAL>1</ACTUAL>
			<DATA_ACT></DATA_ACT>
			<TYPE>7</TYPE>
		</entry>
		<entry>
			<ID>1083</ID>
			<NAME>Неврологические детские</NAME>
			<ID_PARENT></ID_PARENT>
			<FORM_30>50</FORM_30>
			<ACTUAL>1</ACTUAL>
			<DATA_ACT></DATA_ACT>
			<TYPE>7</TYPE>
		</entry>
		<entry>
			<ID>1084</ID>
			<NAME>Нейрохирургические</NAME>
			<ID_PARENT></ID_PARENT>
			<FORM_30>51</FORM_30>
			<ACTUAL>1</ACTUAL>
			<DATA_ACT></DATA_ACT>
			<TYPE>2</TYPE>
		</entry>
		<entry>
			<ID>1085</ID>
			<NAME>Нефрологические</NAME>
			<ID_PARENT></ID_PARENT>
			<FORM_30>50</FORM_30>
			<ACTUAL>1</ACTUAL>
			<DATA_ACT></DATA_ACT>
			<TYPE>7</TYPE>
		</entry>
		<entry>
			<ID>1086</ID>
			<NAME>Онкологические</NAME>
			<ID_PARENT></ID_PARENT>
			<FORM_30>51</FORM_30>
			<ACTUAL>1</ACTUAL>
			<DATA_ACT></DATA_ACT>
			<TYPE>7</TYPE>
		</entry>
		<entry>
			<ID>1087</ID>
			<NAME>Онкологические детские</NAME>
			<ID_PARENT>1086</ID_PARENT>
			<FORM_30>51</FORM_30>
			<ACTUAL>1</ACTUAL>
			<DATA_ACT></DATA_ACT>
			<TYPE>7</TYPE>
		</entry>
		<entry>
			<ID>1088</ID>
			<NAME>Организационно-методические отделы</NAME>
			<ID_PARENT></ID_PARENT>
			<FORM_30>52</FORM_30>
			<ACTUAL>1</ACTUAL>
			<DATA_ACT></DATA_ACT>
			<TYPE>6</TYPE>
		</entry>
		<entry>
			<ID>1089</ID>
			<NAME>Ортодонтические</NAME>
			<ID_PARENT></ID_PARENT>
			<FORM_30>53</FORM_30>
			<ACTUAL>1</ACTUAL>
			<DATA_ACT></DATA_ACT>
			<TYPE>1</TYPE>
		</entry>
		<entry>
			<ID>1090</ID>
			<NAME>Отделы автоматизированной системы управления (АСУ), вычислительные центры</NAME>
			<ID_PARENT></ID_PARENT>
			<FORM_30>54</FORM_30>
			<ACTUAL>1</ACTUAL>
			<DATA_ACT></DATA_ACT>
			<TYPE>6</TYPE>
		</entry>
		<entry>
			<ID>1091</ID>
			<NAME>Отделы анализа и прогнозирования</NAME>
			<ID_PARENT></ID_PARENT>
			<FORM_30>55</FORM_30>
			<ACTUAL>1</ACTUAL>
			<DATA_ACT></DATA_ACT>
			<TYPE>6</TYPE>
		</entry>
		<entry>
			<ID>1092</ID>
			<NAME>Отделы издательской и полиграфической деятельности</NAME>
			<ID_PARENT></ID_PARENT>
			<FORM_30>56</FORM_30>
			<ACTUAL>1</ACTUAL>
			<DATA_ACT></DATA_ACT>
			<TYPE>6</TYPE>
		</entry>
		<entry>
			<ID>1093</ID>
			<NAME>Отделы межсекторальных и внешних связей</NAME>
			<ID_PARENT></ID_PARENT>
			<FORM_30>57</FORM_30>
			<ACTUAL>1</ACTUAL>
			<DATA_ACT></DATA_ACT>
			<TYPE>6</TYPE>
		</entry>
		<entry>
			<ID>1094</ID>
			<NAME>Отделы обработки медико-статистической информации</NAME>
			<ID_PARENT></ID_PARENT>
			<FORM_30>58</FORM_30>
			<ACTUAL>1</ACTUAL>
			<DATA_ACT></DATA_ACT>
			<TYPE>6</TYPE>
		</entry>
		<entry>
			<ID>1095</ID>
			<NAME>Отделы программного обеспечения</NAME>
			<ID_PARENT></ID_PARENT>
			<FORM_30>59</FORM_30>
			<ACTUAL>1</ACTUAL>
			<DATA_ACT></DATA_ACT>
			<TYPE>6</TYPE>
		</entry>
		<entry>
			<ID>1096</ID>
			<NAME>Отделы сетевых технологий и защиты информации</NAME>
			<ID_PARENT></ID_PARENT>
			<FORM_30>60</FORM_30>
			<ACTUAL>1</ACTUAL>
			<DATA_ACT></DATA_ACT>
			<TYPE>6</TYPE>
		</entry>
		<entry>
			<ID>1097</ID>
			<NAME>Отделы сбора баз данных</NAME>
			<ID_PARENT></ID_PARENT>
			<FORM_30>61</FORM_30>
			<ACTUAL>1</ACTUAL>
			<DATA_ACT></DATA_ACT>
			<TYPE>6</TYPE>
		</entry>
		<entry>
			<ID>1098</ID>
			<NAME>Отделения (кабинеты) кризисных состояний</NAME>
			<ID_PARENT></ID_PARENT>
			<FORM_30>62</FORM_30>
			<ACTUAL>1</ACTUAL>
			<DATA_ACT></DATA_ACT>
			<TYPE>1</TYPE>
		</entry>
		<entry>
			<ID>1099</ID>
			<NAME>Отделения (кабинеты) рентгеноэндоваскулярной диагностики и лечения</NAME>
			<ID_PARENT></ID_PARENT>
			<FORM_30>63</FORM_30>
			<ACTUAL>1</ACTUAL>
			<DATA_ACT></DATA_ACT>
			<TYPE>7</TYPE>
		</entry>
		<entry>
			<ID>1100</ID>
			<NAME>Отделения (кабинеты) социально-психологической помощи</NAME>
			<ID_PARENT></ID_PARENT>
			<FORM_30>64</FORM_30>
			<ACTUAL>1</ACTUAL>
			<DATA_ACT></DATA_ACT>
			<TYPE>1</TYPE>
		</entry>
		<entry>
			<ID>1101</ID>
			<NAME>Отделения (кабинеты) медицинской статистики</NAME>
			<ID_PARENT></ID_PARENT>
			<FORM_30>65</FORM_30>
			<ACTUAL>1</ACTUAL>
			<DATA_ACT></DATA_ACT>
			<TYPE>6</TYPE>
		</entry>
		<entry>
			<ID>1102</ID>
			<NAME>Отделения (кабинеты) врача общей практики (семейного врача)</NAME>
			<ID_PARENT></ID_PARENT>
			<FORM_30>66</FORM_30>
			<ACTUAL>1</ACTUAL>
			<DATA_ACT></DATA_ACT>
			<TYPE>1</TYPE>
		</entry>
		<entry>
			<ID>1103</ID>
			<NAME>Отделения медико-криминалистические</NAME>
			<ID_PARENT></ID_PARENT>
			<FORM_30>67</FORM_30>
			<ACTUAL>1</ACTUAL>
			<DATA_ACT></DATA_ACT>
			<TYPE>6</TYPE>
		</entry>
		<entry>
			<ID>1104</ID>
			<NAME>Отделения мониторинга здоровья населения</NAME>
			<ID_PARENT></ID_PARENT>
			<FORM_30>68</FORM_30>
			<ACTUAL>1</ACTUAL>
			<DATA_ACT></DATA_ACT>
			<TYPE>6</TYPE>
		</entry>
		<entry>
			<ID>1105</ID>
			<NAME>Отделения неотложной помощи</NAME>
			<ID_PARENT></ID_PARENT>
			<FORM_30>69</FORM_30>
			<ACTUAL>1</ACTUAL>
			<DATA_ACT></DATA_ACT>
			<TYPE>5</TYPE>
		</entry>
		<entry>
			<ID>1106</ID>
			<NAME>Отделения скорой медицинской помощи</NAME>
			<ID_PARENT></ID_PARENT>
			<FORM_30>70</FORM_30>
			<ACTUAL>1</ACTUAL>
			<DATA_ACT></DATA_ACT>
			<TYPE>5</TYPE>
		</entry>
		<entry>
			<ID>1107</ID>
			<NAME>Отделения статистики в составе оргметодотдела</NAME>
			<ID_PARENT></ID_PARENT>
			<FORM_30>71</FORM_30>
			<ACTUAL>1</ACTUAL>
			<DATA_ACT></DATA_ACT>
			<TYPE>6</TYPE>
		</entry>
		<entry>
			<ID>1108</ID>
			<NAME>Отделения сложных судебно-медицинских экспертиз</NAME>
			<ID_PARENT></ID_PARENT>
			<FORM_30>72</FORM_30>
			<ACTUAL>1</ACTUAL>
			<DATA_ACT></DATA_ACT>
			<TYPE>3</TYPE>
		</entry>
		<entry>
			<ID>1109</ID>
			<NAME>Отделения судебно-биохимические</NAME>
			<ID_PARENT></ID_PARENT>
			<FORM_30>73</FORM_30>
			<ACTUAL>1</ACTUAL>
			<DATA_ACT></DATA_ACT>
			<TYPE>3</TYPE>
		</entry>
		<entry>
			<ID>1110</ID>
			<NAME>Отделения судебно-гистологические</NAME>
			<ID_PARENT></ID_PARENT>
			<FORM_30>74</FORM_30>
			<ACTUAL>1</ACTUAL>
			<DATA_ACT></DATA_ACT>
			<TYPE>3</TYPE>
		</entry>
		<entry>
			<ID>1111</ID>
			<NAME>Отделения судебно-медицинской экспертизы вещественных доказательств</NAME>
			<ID_PARENT></ID_PARENT>
			<FORM_30>75</FORM_30>
			<ACTUAL>1</ACTUAL>
			<DATA_ACT></DATA_ACT>
			<TYPE>3</TYPE>
		</entry>
		<entry>
			<ID>1112</ID>
			<NAME>Отделения судебно-медицинской экспертизы трупов</NAME>
			<ID_PARENT></ID_PARENT>
			<FORM_30>76</FORM_30>
			<ACTUAL>1</ACTUAL>
			<DATA_ACT></DATA_ACT>
			<TYPE>3</TYPE>
		</entry>
		<entry>
			<ID>1113</ID>
			<NAME>Отделения судебно-химические</NAME>
			<ID_PARENT></ID_PARENT>
			<FORM_30>77</FORM_30>
			<ACTUAL>1</ACTUAL>
			<DATA_ACT></DATA_ACT>
			<TYPE>3</TYPE>
		</entry>
		<entry>
			<ID>1114</ID>
			<NAME>Отделения судебно-цитологические</NAME>
			<ID_PARENT></ID_PARENT>
			<FORM_30>78</FORM_30>
			<ACTUAL>1</ACTUAL>
			<DATA_ACT></DATA_ACT>
			<TYPE>3</TYPE>
		</entry>
		<entry>
			<ID>1115</ID>
			<NAME>Отделения экстренной консультативной помощи и медицинской эвакуации</NAME>
			<ID_PARENT></ID_PARENT>
			<FORM_30>79</FORM_30>
			<ACTUAL>1</ACTUAL>
			<DATA_ACT></DATA_ACT>
			<TYPE>5</TYPE>
		</entry>
		<entry>
			<ID>1116</ID>
			<NAME>Отделения экстренной медицинской помощи</NAME>
			<ID_PARENT></ID_PARENT>
			<FORM_30>80</FORM_30>
			<ACTUAL>1</ACTUAL>
			<DATA_ACT></DATA_ACT>
			<TYPE>5</TYPE>
		</entry>
		<entry>
			<ID>1117</ID>
			<NAME>Оториноларингологические</NAME>
			<ID_PARENT></ID_PARENT>
			<FORM_30>81</FORM_30>
			<ACTUAL>1</ACTUAL>
			<DATA_ACT></DATA_ACT>
			<TYPE>7</TYPE>
		</entry>
		<entry>
			<ID>1118</ID>
			<NAME>Офтальмологические</NAME>
			<ID_PARENT></ID_PARENT>
			<FORM_30>82</FORM_30>
			<ACTUAL>1</ACTUAL>
			<DATA_ACT></DATA_ACT>
			<TYPE>7</TYPE>
		</entry>
		<entry>
			<ID>1119</ID>
			<NAME>Охраны репродуктивного здоровья подростков</NAME>
			<ID_PARENT></ID_PARENT>
			<FORM_30>83</FORM_30>
			<ACTUAL>1</ACTUAL>
			<DATA_ACT></DATA_ACT>
			<TYPE>1</TYPE>
		</entry>
		<entry>
			<ID>1120</ID>
			<NAME>Патологоанатомические</NAME>
			<ID_PARENT></ID_PARENT>
			<FORM_30>84</FORM_30>
			<ACTUAL>1</ACTUAL>
			<DATA_ACT></DATA_ACT>
			<TYPE>6</TYPE>
		</entry>
		<entry>
			<ID>1121</ID>
			<NAME>Переливания крови</NAME>
			<ID_PARENT></ID_PARENT>
			<FORM_30>85</FORM_30>
			<ACTUAL>1</ACTUAL>
			<DATA_ACT></DATA_ACT>
			<TYPE>6</TYPE>
		</entry>
		<entry>
			<ID>1122</ID>
			<NAME>Перинатальные центры</NAME>
			<ID_PARENT></ID_PARENT>
			<FORM_30>86</FORM_30>
			<ACTUAL>1</ACTUAL>
			<DATA_ACT></DATA_ACT>
			<TYPE>2</TYPE>
		</entry>
		<entry>
			<ID>1123</ID>
			<NAME>Платные кабинеты (отделения)</NAME>
			<ID_PARENT></ID_PARENT>
			<FORM_30>87</FORM_30>
			<ACTUAL>1</ACTUAL>
			<DATA_ACT></DATA_ACT>
			<TYPE>7</TYPE>
		</entry>
		<entry>
			<ID>1124</ID>
			<NAME>Поликлиники (поликлинические отделения)</NAME>
			<ID_PARENT></ID_PARENT>
			<FORM_30>88</FORM_30>
			<ACTUAL>1</ACTUAL>
			<DATA_ACT></DATA_ACT>
			<TYPE>1</TYPE>
		</entry>
		<entry>
			<ID>1125</ID>
			<NAME>По медицинской генетике (медико-генетические консультации)</NAME>
			<ID_PARENT></ID_PARENT>
			<FORM_30>89</FORM_30>
			<ACTUAL>1</ACTUAL>
			<DATA_ACT></DATA_ACT>
			<TYPE>1</TYPE>
		</entry>
		<entry>
			<ID>1126</ID>
			<NAME>Подростковые</NAME>
			<ID_PARENT></ID_PARENT>
			<FORM_30>90</FORM_30>
			<ACTUAL>1</ACTUAL>
			<DATA_ACT></DATA_ACT>
			<TYPE>7</TYPE>
		</entry>
		<entry>
			<ID>1127</ID>
			<NAME>Подростковые специализированные центры (кабинеты) профилактики и лечения инфекций, передаваемых преимущественно половым путем</NAME>
			<ID_PARENT></ID_PARENT>
			<FORM_30>91</FORM_30>
			<ACTUAL>1</ACTUAL>
			<DATA_ACT></DATA_ACT>
			<TYPE>1</TYPE>
		</entry>
		<entry>
			<ID>1128</ID>
			<NAME>Подростковые наркологические</NAME>
			<ID_PARENT></ID_PARENT>
			<FORM_30>92</FORM_30>
			<ACTUAL>1</ACTUAL>
			<DATA_ACT></DATA_ACT>
			<TYPE>7</TYPE>
		</entry>
		<entry>
			<ID>1129</ID>
			<NAME>Прививочные</NAME>
			<ID_PARENT></ID_PARENT>
			<FORM_30>93</FORM_30>
			<ACTUAL>1</ACTUAL>
			<DATA_ACT></DATA_ACT>
			<TYPE>1</TYPE>
		</entry>
		<entry>
			<ID>1130</ID>
			<NAME>Профпатологические</NAME>
			<ID_PARENT></ID_PARENT>
			<FORM_30>94</FORM_30>
			<ACTUAL>1</ACTUAL>
			<DATA_ACT></DATA_ACT>
			<TYPE>7</TYPE>
		</entry>
		<entry>
			<ID>1131</ID>
			<NAME>Психиатрические</NAME>
			<ID_PARENT></ID_PARENT>
			<FORM_30>95</FORM_30>
			<ACTUAL>1</ACTUAL>
			<DATA_ACT></DATA_ACT>
			<TYPE>7</TYPE>
		</entry>
		<entry>
			<ID>1132</ID>
			<NAME>Психотерапевтические</NAME>
			<ID_PARENT></ID_PARENT>
			<FORM_30>96</FORM_30>
			<ACTUAL>1</ACTUAL>
			<DATA_ACT></DATA_ACT>
			<TYPE>7</TYPE>
		</entry>
		<entry>
			<ID>1133</ID>
			<NAME>Психоэндокринологические</NAME>
			<ID_PARENT></ID_PARENT>
			<FORM_30>97</FORM_30>
			<ACTUAL>1</ACTUAL>
			<DATA_ACT></DATA_ACT>
			<TYPE>7</TYPE>
		</entry>
		<entry>
			<ID>1134</ID>
			<NAME>Пульмонологические</NAME>
			<ID_PARENT></ID_PARENT>
			<FORM_30>98</FORM_30>
			<ACTUAL>1</ACTUAL>
			<DATA_ACT></DATA_ACT>
			<TYPE>7</TYPE>
		</entry>
		<entry>
			<ID>1135</ID>
			<NAME>Пункты (отделения) неотложной медицинской помощи на дому</NAME>
			<ID_PARENT></ID_PARENT>
			<FORM_30>99</FORM_30>
			<ACTUAL>1</ACTUAL>
			<DATA_ACT></DATA_ACT>
			<TYPE>5</TYPE>
		</entry>
		<entry>
			<ID>1136</ID>
			<NAME>Пункты (отделения) неотложной медицинской помощи на дому взрослому населению</NAME>
			<ID_PARENT>1135</ID_PARENT>
			<FORM_30>99.1</FORM_30>
			<ACTUAL>1</ACTUAL>
			<DATA_ACT></DATA_ACT>
			<TYPE>5</TYPE>
		</entry>
		<entry>
			<ID>1137</ID>
			<NAME>Пункты (отделения) неотложной медицинской помощи на дому детскому населению</NAME>
			<ID_PARENT>1135</ID_PARENT>
			<FORM_30>99.2</FORM_30>
			<ACTUAL>1</ACTUAL>
			<DATA_ACT></DATA_ACT>
			<TYPE>5</TYPE>
		</entry>
		<entry>
			<ID>1138</ID>
			<NAME>Пункты сбора грудного молока</NAME>
			<ID_PARENT></ID_PARENT>
			<FORM_30>100</FORM_30>
			<ACTUAL>1</ACTUAL>
			<DATA_ACT></DATA_ACT>
			<TYPE>6</TYPE>
		</entry>
		<entry>
			<ID>1139</ID>
			<NAME>Радиологические</NAME>
			<ID_PARENT></ID_PARENT>
			<FORM_30>101</FORM_30>
			<ACTUAL>1</ACTUAL>
			<DATA_ACT></DATA_ACT>
			<TYPE>4</TYPE>
		</entry>
		<entry>
			<ID>1140</ID>
			<NAME>Радиотерапевтические</NAME>
			<ID_PARENT></ID_PARENT>
			<FORM_30>102</FORM_30>
			<ACTUAL>1</ACTUAL>
			<DATA_ACT></DATA_ACT>
			<TYPE>2</TYPE>
		</entry>
		<entry>
			<ID>1141</ID>
			<NAME>Ревматологические</NAME>
			<ID_PARENT></ID_PARENT>
			<FORM_30>103</FORM_30>
			<ACTUAL>1</ACTUAL>
			<DATA_ACT></DATA_ACT>
			<TYPE>7</TYPE>
		</entry>
		<entry>
			<ID>1142</ID>
			<NAME>Ревматологические детские</NAME>
			<ID_PARENT>1141</ID_PARENT>
			<FORM_30>103</FORM_30>
			<ACTUAL>1</ACTUAL>
			<DATA_ACT></DATA_ACT>
			<TYPE>7</TYPE>
		</entry>
		<entry>
			<ID>1143</ID>
			<NAME>Редакционно-издательские отделы</NAME>
			<ID_PARENT></ID_PARENT>
			<FORM_30>104</FORM_30>
			<ACTUAL>1</ACTUAL>
			<DATA_ACT></DATA_ACT>
			<TYPE>6</TYPE>
		</entry>
		<entry>
			<ID>1144</ID>
			<NAME>Рентгенологические</NAME>
			<ID_PARENT></ID_PARENT>
			<FORM_30>105</FORM_30>
			<ACTUAL>1</ACTUAL>
			<DATA_ACT></DATA_ACT>
			<TYPE>4</TYPE>
		</entry>
		<entry>
			<ID>1145</ID>
			<NAME>Рентгенохирургические</NAME>
			<ID_PARENT></ID_PARENT>
			<FORM_30>106</FORM_30>
			<ACTUAL>1</ACTUAL>
			<DATA_ACT></DATA_ACT>
			<TYPE>2</TYPE>
		</entry>
		<entry>
			<ID>1146</ID>
			<NAME>Рефлексотерапии</NAME>
			<ID_PARENT></ID_PARENT>
			<FORM_30>107</FORM_30>
			<ACTUAL>1</ACTUAL>
			<DATA_ACT></DATA_ACT>
			<TYPE>1</TYPE>
		</entry>
		<entry>
			<ID>1147</ID>
			<NAME>Санаторно-курортные</NAME>
			<ID_PARENT></ID_PARENT>
			<FORM_30>108</FORM_30>
			<ACTUAL>1</ACTUAL>
			<DATA_ACT></DATA_ACT>
			<TYPE>1</TYPE>
		</entry>
		<entry>
			<ID>1148</ID>
			<NAME>Сексологические</NAME>
			<ID_PARENT></ID_PARENT>
			<FORM_30>109</FORM_30>
			<ACTUAL>1</ACTUAL>
			<DATA_ACT></DATA_ACT>
			<TYPE>1</TYPE>
		</entry>
		<entry>
			<ID>1149</ID>
			<NAME>Смотровые кабинеты</NAME>
			<ID_PARENT></ID_PARENT>
			<FORM_30>110</FORM_30>
			<ACTUAL>1</ACTUAL>
			<DATA_ACT></DATA_ACT>
			<TYPE>1</TYPE>
		</entry>
		<entry>
			<ID>1150</ID>
			<NAME>Социально-правовые</NAME>
			<ID_PARENT></ID_PARENT>
			<FORM_30>111</FORM_30>
			<ACTUAL>1</ACTUAL>
			<DATA_ACT></DATA_ACT>
			<TYPE>6</TYPE>
		</entry>
		<entry>
			<ID>1151</ID>
			<NAME>Спортивной медицины</NAME>
			<ID_PARENT></ID_PARENT>
			<FORM_30>112</FORM_30>
			<ACTUAL>1</ACTUAL>
			<DATA_ACT></DATA_ACT>
			<TYPE>6</TYPE>
		</entry>
		<entry>
			<ID>1152</ID>
			<NAME>Стоматологические</NAME>
			<ID_PARENT></ID_PARENT>
			<FORM_30>113</FORM_30>
			<ACTUAL>1</ACTUAL>
			<DATA_ACT></DATA_ACT>
			<TYPE>7</TYPE>
		</entry>
		<entry>
			<ID>1153</ID>
			<NAME>Стоматологии ортопедической</NAME>
			<ID_PARENT>1152</ID_PARENT>
			<FORM_30>113.1</FORM_30>
			<ACTUAL>1</ACTUAL>
			<DATA_ACT></DATA_ACT>
			<TYPE>7</TYPE>
		</entry>
		<entry>
			<ID>1154</ID>
			<NAME>Стоматологические детские</NAME>
			<ID_PARENT>1152</ID_PARENT>
			<FORM_30>113</FORM_30>
			<ACTUAL>1</ACTUAL>
			<DATA_ACT></DATA_ACT>
			<TYPE>7</TYPE>
		</entry>
		<entry>
			<ID>1155</ID>
			<NAME>Стоматологические профилактические</NAME>
			<ID_PARENT>1152</ID_PARENT>
			<FORM_30>113</FORM_30>
			<ACTUAL>1</ACTUAL>
			<DATA_ACT></DATA_ACT>
			<TYPE>1</TYPE>
		</entry>
		<entry>
			<ID>1156</ID>
			<NAME>Стоматологические терапевтические</NAME>
			<ID_PARENT>1152</ID_PARENT>
			<FORM_30>113</FORM_30>
			<ACTUAL>1</ACTUAL>
			<DATA_ACT></DATA_ACT>
			<TYPE>7</TYPE>
		</entry>
		<entry>
			<ID>1157</ID>
			<NAME>Стоматологические хирургические</NAME>
			<ID_PARENT>1152</ID_PARENT>
			<FORM_30>113</FORM_30>
			<ACTUAL>1</ACTUAL>
			<DATA_ACT></DATA_ACT>
			<TYPE>7</TYPE>
		</entry>
		<entry>
			<ID>1158</ID>
			<NAME>Сурдологические</NAME>
			<ID_PARENT></ID_PARENT>
			<FORM_30>114</FORM_30>
			<ACTUAL>1</ACTUAL>
			<DATA_ACT></DATA_ACT>
			<TYPE>1</TYPE>
		</entry>
		<entry>
			<ID>1159</ID>
			<NAME>Телефон доверия</NAME>
			<ID_PARENT></ID_PARENT>
			<FORM_30>115</FORM_30>
			<ACTUAL>1</ACTUAL>
			<DATA_ACT></DATA_ACT>
			<TYPE>6</TYPE>
		</entry>
		<entry>
			<ID>1160</ID>
			<NAME>Терапевтические</NAME>
			<ID_PARENT></ID_PARENT>
			<FORM_30>116</FORM_30>
			<ACTUAL>1</ACTUAL>
			<DATA_ACT></DATA_ACT>
			<TYPE>7</TYPE>
		</entry>
		<entry>
			<ID>1161</ID>
			<NAME>Травматологические (ортопедические)</NAME>
			<ID_PARENT></ID_PARENT>
			<FORM_30>117</FORM_30>
			<ACTUAL>1</ACTUAL>
			<DATA_ACT></DATA_ACT>
			<TYPE>7</TYPE>
		</entry>
		<entry>
			<ID>1162</ID>
			<NAME>Ультразвуковой диагностики</NAME>
			<ID_PARENT></ID_PARENT>
			<FORM_30>118</FORM_30>
			<ACTUAL>1</ACTUAL>
			<DATA_ACT></DATA_ACT>
			<TYPE>4</TYPE>
		</entry>
		<entry>
			<ID>1163</ID>
			<NAME>Урологические</NAME>
			<ID_PARENT></ID_PARENT>
			<FORM_30>119</FORM_30>
			<ACTUAL>1</ACTUAL>
			<DATA_ACT></DATA_ACT>
			<TYPE>7</TYPE>
		</entry>
		<entry>
			<ID>1164</ID>
			<NAME>Урологические и андрологические детские</NAME>
			<ID_PARENT>1163</ID_PARENT>
			<FORM_30>119</FORM_30>
			<ACTUAL>1</ACTUAL>
			<DATA_ACT></DATA_ACT>
			<TYPE>7</TYPE>
		</entry>
		<entry>
			<ID>1165</ID>
			<NAME>Участковые больницы в составе медицинской организации</NAME>
			<ID_PARENT></ID_PARENT>
			<FORM_30>120</FORM_30>
			<ACTUAL>1</ACTUAL>
			<DATA_ACT></DATA_ACT>
			<TYPE>2</TYPE>
		</entry>
		<entry>
			<ID>1166</ID>
			<NAME>Фельдшерско-акушерские пункты (включая передвижные)</NAME>
			<ID_PARENT></ID_PARENT>
			<FORM_30>121</FORM_30>
			<ACTUAL>1</ACTUAL>
			<DATA_ACT></DATA_ACT>
			<TYPE>1</TYPE>
		</entry>
		<entry>
			<ID>1167</ID>
			<NAME>Фельдшерские пункты (включая передвижные)</NAME>
			<ID_PARENT></ID_PARENT>
			<FORM_30>122</FORM_30>
			<ACTUAL>1</ACTUAL>
			<DATA_ACT></DATA_ACT>
			<TYPE>1</TYPE>
		</entry>
		<entry>
			<ID>1168</ID>
			<NAME>Физиотерапевтические</NAME>
			<ID_PARENT></ID_PARENT>
			<FORM_30>123</FORM_30>
			<ACTUAL>1</ACTUAL>
			<DATA_ACT></DATA_ACT>
			<TYPE>1</TYPE>
		</entry>
		<entry>
			<ID>1169</ID>
			<NAME>Флюорографические</NAME>
			<ID_PARENT></ID_PARENT>
			<FORM_30>124</FORM_30>
			<ACTUAL>1</ACTUAL>
			<DATA_ACT></DATA_ACT>
			<TYPE>4</TYPE>
		</entry>
		<entry>
			<ID>1170</ID>
			<NAME>Фтизиатрические</NAME>
			<ID_PARENT></ID_PARENT>
			<FORM_30>125</FORM_30>
			<ACTUAL>1</ACTUAL>
			<DATA_ACT></DATA_ACT>
			<TYPE>7</TYPE>
		</entry>
		<entry>
			<ID>1171</ID>
			<NAME>Туберкулезные для подростков</NAME>
			<ID_PARENT>1170</ID_PARENT>
			<FORM_30>125</FORM_30>
			<ACTUAL>1</ACTUAL>
			<DATA_ACT></DATA_ACT>
			<TYPE>7</TYPE>
		</entry>
		<entry>
			<ID>1172</ID>
			<NAME>Туберкулезные хирургические</NAME>
			<ID_PARENT>1170</ID_PARENT>
			<FORM_30>125</FORM_30>
			<ACTUAL>1</ACTUAL>
			<DATA_ACT></DATA_ACT>
			<TYPE>2</TYPE>
		</entry>
		<entry>
			<ID>1173</ID>
			<NAME>Туберкулезные легочные</NAME>
			<ID_PARENT>1170</ID_PARENT>
			<FORM_30>125</FORM_30>
			<ACTUAL>1</ACTUAL>
			<DATA_ACT></DATA_ACT>
			<TYPE>7</TYPE>
		</entry>
		<entry>
			<ID>1174</ID>
			<NAME>Туберкулезные внелегочные</NAME>
			<ID_PARENT>1170</ID_PARENT>
			<FORM_30>125</FORM_30>
			<ACTUAL>1</ACTUAL>
			<DATA_ACT></DATA_ACT>
			<TYPE>7</TYPE>
		</entry>
		<entry>
			<ID>1175</ID>
			<NAME>Функциональной диагностики</NAME>
			<ID_PARENT></ID_PARENT>
			<FORM_30>126</FORM_30>
			<ACTUAL>1</ACTUAL>
			<DATA_ACT></DATA_ACT>
			<TYPE>4</TYPE>
		</entry>
		<entry>
			<ID>1176</ID>
			<NAME>Хирургические</NAME>
			<ID_PARENT></ID_PARENT>
			<FORM_30>127</FORM_30>
			<ACTUAL>1</ACTUAL>
			<DATA_ACT></DATA_ACT>
			<TYPE>7</TYPE>
		</entry>
		<entry>
			<ID>1177</ID>
			<NAME>Хирургические абдоминальные</NAME>
			<ID_PARENT>1176</ID_PARENT>
			<FORM_30>127</FORM_30>
			<ACTUAL>1</ACTUAL>
			<DATA_ACT></DATA_ACT>
			<TYPE>2</TYPE>
		</entry>
		<entry>
			<ID>1178</ID>
			<NAME>Хирургические комбустиологические</NAME>
			<ID_PARENT>1176</ID_PARENT>
			<FORM_30>127</FORM_30>
			<ACTUAL>1</ACTUAL>
			<DATA_ACT></DATA_ACT>
			<TYPE>2</TYPE>
		</entry>
		<entry>
			<ID>1179</ID>
			<NAME>Хирургические детские</NAME>
			<ID_PARENT>1176</ID_PARENT>
			<FORM_30>127</FORM_30>
			<ACTUAL>1</ACTUAL>
			<DATA_ACT></DATA_ACT>
			<TYPE>7</TYPE>
		</entry>
		<entry>
			<ID>1180</ID>
			<NAME>Хирургические детские в период новорожденности</NAME>
			<ID_PARENT>1179</ID_PARENT>
			<FORM_30>127</FORM_30>
			<ACTUAL>1</ACTUAL>
			<DATA_ACT></DATA_ACT>
			<TYPE>2</TYPE>
		</entry>
		<entry>
			<ID>1181</ID>
			<NAME>Хирургические торакальные</NAME>
			<ID_PARENT>1176</ID_PARENT>
			<FORM_30>127</FORM_30>
			<ACTUAL>1</ACTUAL>
			<DATA_ACT></DATA_ACT>
			<TYPE>2</TYPE>
		</entry>
		<entry>
			<ID>1182</ID>
			<NAME>Хирургические гнойные</NAME>
			<ID_PARENT>1176</ID_PARENT>
			<FORM_30>127</FORM_30>
			<ACTUAL>1</ACTUAL>
			<DATA_ACT></DATA_ACT>
			<TYPE>7</TYPE>
		</entry>
		<entry>
			<ID>1183</ID>
			<NAME>Хирургические сердечно-сосудистые</NAME>
			<ID_PARENT>1176</ID_PARENT>
			<FORM_30>127</FORM_30>
			<ACTUAL>1</ACTUAL>
			<DATA_ACT></DATA_ACT>
			<TYPE>2</TYPE>
		</entry>
		<entry>
			<ID>1184</ID>
			<NAME>Хирургические детские</NAME>
			<ID_PARENT>1176</ID_PARENT>
			<FORM_30>127</FORM_30>
			<ACTUAL>0</ACTUAL>
			<DATA_ACT>25.12.2015</DATA_ACT>
			<TYPE>7</TYPE>
		</entry>
		<entry>
			<ID>1185</ID>
			<NAME>Хирургические трансплантации органов и (или) тканей человека</NAME>
			<ID_PARENT>1176</ID_PARENT>
			<FORM_30>127</FORM_30>
			<ACTUAL>1</ACTUAL>
			<DATA_ACT></DATA_ACT>
			<TYPE>2</TYPE>
		</entry>
		<entry>
			<ID>1186</ID>
			<NAME>Микрохирургические</NAME>
			<ID_PARENT>1176</ID_PARENT>
			<FORM_30>127</FORM_30>
			<ACTUAL>1</ACTUAL>
			<DATA_ACT></DATA_ACT>
			<TYPE>2</TYPE>
		</entry>
		<entry>
			<ID>1187</ID>
			<NAME>Центры амбулаторной хирургии</NAME>
			<ID_PARENT></ID_PARENT>
			<FORM_30>128</FORM_30>
			<ACTUAL>1</ACTUAL>
			<DATA_ACT></DATA_ACT>
			<TYPE>1</TYPE>
		</entry>
		<entry>
			<ID>1188</ID>
			<NAME>Центры врача общей практики (семейного врача)</NAME>
			<ID_PARENT></ID_PARENT>
			<FORM_30>129</FORM_30>
			<ACTUAL>1</ACTUAL>
			<DATA_ACT></DATA_ACT>
			<TYPE>1</TYPE>
		</entry>
		<entry>
			<ID>1189</ID>
			<NAME>Центры здоровья для взрослых</NAME>
			<ID_PARENT></ID_PARENT>
			<FORM_30>130</FORM_30>
			<ACTUAL>1</ACTUAL>
			<DATA_ACT></DATA_ACT>
			<TYPE>1</TYPE>
		</entry>
		<entry>
			<ID>1190</ID>
			<NAME>Центры здоровья для детей</NAME>
			<ID_PARENT></ID_PARENT>
			<FORM_30>131</FORM_30>
			<ACTUAL>1</ACTUAL>
			<DATA_ACT></DATA_ACT>
			<TYPE>1</TYPE>
		</entry>
		<entry>
			<ID>1191</ID>
			<NAME>Центры медицины катастроф</NAME>
			<ID_PARENT></ID_PARENT>
			<FORM_30>132</FORM_30>
			<ACTUAL>1</ACTUAL>
			<DATA_ACT></DATA_ACT>
			<TYPE>7</TYPE>
		</entry>
		<entry>
			<ID>1192</ID>
			<NAME>Центры планирования семьи и репродукции</NAME>
			<ID_PARENT></ID_PARENT>
			<FORM_30>133</FORM_30>
			<ACTUAL>1</ACTUAL>
			<DATA_ACT></DATA_ACT>
			<TYPE>2</TYPE>
		</entry>
		<entry>
			<ID>1193</ID>
			<NAME>Челюстно-лицевой хирургии</NAME>
			<ID_PARENT></ID_PARENT>
			<FORM_30>134</FORM_30>
			<ACTUAL>1</ACTUAL>
			<DATA_ACT></DATA_ACT>
			<TYPE>2</TYPE>
		</entry>
		<entry>
			<ID>1194</ID>
			<NAME>Экспертизы алкогольного опьянения</NAME>
			<ID_PARENT></ID_PARENT>
			<FORM_30>135</FORM_30>
			<ACTUAL>1</ACTUAL>
			<DATA_ACT></DATA_ACT>
			<TYPE>1</TYPE>
		</entry>
		<entry>
			<ID>1195</ID>
			<NAME>Эндокринологические</NAME>
			<ID_PARENT></ID_PARENT>
			<FORM_30>136</FORM_30>
			<ACTUAL>1</ACTUAL>
			<DATA_ACT></DATA_ACT>
			<TYPE>7</TYPE>
		</entry>
		<entry>
			<ID>1196</ID>
			<NAME>Эндокринологические детские</NAME>
			<ID_PARENT>1195</ID_PARENT>
			<FORM_30>136</FORM_30>
			<ACTUAL>1</ACTUAL>
			<DATA_ACT></DATA_ACT>
			<TYPE>7</TYPE>
		</entry>
		<entry>
			<ID>1197</ID>
			<NAME>Эндоскопии</NAME>
			<ID_PARENT></ID_PARENT>
			<FORM_30>137</FORM_30>
			<ACTUAL>1</ACTUAL>
			<DATA_ACT></DATA_ACT>
			<TYPE>4</TYPE>
		</entry>
		<entry>
			<ID>1198</ID>
			<NAME>Прочие</NAME>
			<ID_PARENT></ID_PARENT>
			<FORM_30>138</FORM_30>
			<ACTUAL>1</ACTUAL>
			<DATA_ACT></DATA_ACT>
			<TYPE>7</TYPE>
		</entry>
		<entry>
			<ID>1199</ID>
			<NAME>Анестезиологии и реаниматологии</NAME>
			<ID_PARENT>1198</ID_PARENT>
			<FORM_30>138</FORM_30>
			<ACTUAL>1</ACTUAL>
			<DATA_ACT></DATA_ACT>
			<TYPE>2</TYPE>
		</entry>
		<entry>
			<ID>1200</ID>
			<NAME>Анестезиологии и реаниматологии для детей</NAME>
			<ID_PARENT>1199</ID_PARENT>
			<FORM_30>138</FORM_30>
			<ACTUAL>1</ACTUAL>
			<DATA_ACT></DATA_ACT>
			<TYPE>2</TYPE>
		</entry>
		<entry>
			<ID>1201</ID>
			<NAME>Гериатрические</NAME>
			<ID_PARENT>1198</ID_PARENT>
			<FORM_30>138</FORM_30>
			<ACTUAL>1</ACTUAL>
			<DATA_ACT></DATA_ACT>
			<TYPE>7</TYPE>
		</entry>
		<entry>
			<ID>1202</ID>
			<NAME>Флебологические</NAME>
			<ID_PARENT>1198</ID_PARENT>
			<FORM_30>138</FORM_30>
			<ACTUAL>1</ACTUAL>
			<DATA_ACT></DATA_ACT>
			<TYPE>7</TYPE>
		</entry>
		<entry>
			<ID>1203</ID>
			<NAME>Токсикологические</NAME>
			<ID_PARENT>1198</ID_PARENT>
			<FORM_30>138</FORM_30>
			<ACTUAL>1</ACTUAL>
			<DATA_ACT></DATA_ACT>
			<TYPE>2</TYPE>
		</entry>
		<entry>
			<ID>1204</ID>
			<NAME>Приемные отделения</NAME>
			<ID_PARENT>1198</ID_PARENT>
			<FORM_30>138</FORM_30>
			<ACTUAL>1</ACTUAL>
			<DATA_ACT></DATA_ACT>
			<TYPE>2</TYPE>
		</entry>
		<entry>
			<ID>1205</ID>
			<NAME>Диетологические</NAME>
			<ID_PARENT>1198</ID_PARENT>
			<FORM_30>138</FORM_30>
			<ACTUAL>1</ACTUAL>
			<DATA_ACT></DATA_ACT>
			<TYPE>7</TYPE>
		</entry>
		<entry>
			<ID>1206</ID>
			<NAME>Паллиативной медицинской помощи</NAME>
			<ID_PARENT>1198</ID_PARENT>
			<FORM_30>138</FORM_30>
			<ACTUAL>1</ACTUAL>
			<DATA_ACT></DATA_ACT>
			<TYPE>7</TYPE>
		</entry>
	</entries>
</book>