﻿<?xml version="1.0" encoding="UTF-8"?>
<book>
	<entries>
		<entry>
			<ID>1</ID>
			<SCTID>161045001</SCTID>
			<NAME>1 группа</NAME>
		</entry>
		<entry>
			<ID>2</ID>
			<SCTID>161044002</SCTID>
			<NAME>2 группа</NAME>
		</entry>
		<entry>
			<ID>3</ID>
			<SCTID>161043008</SCTID>
			<NAME>3 группа</NAME>
		</entry>
		<entry>
			<ID>4</ID>
			<SCTID/>
			<NAME>Ребенок-инвалид</NAME>
		</entry>
	</entries>
</book>